﻿{
  "dependencies": {
    "Microsoft.NETCore.UniversalWindowsPlatform": "5.3.3",
    "Microsoft.Xaml.Behaviors.Uwp.Managed": "2.0.0",
    "Rx-Main": "2.2.5"
  },
  "frameworks": {
    "uap10.0": {}
  },
  "runtimes": {
    "win10-arm": {},
    "win10-arm-aot": {},
    "win10-x86": {},
    "win10-x86-aot": {},
    "win10-x64": {},
    "win10-x64-aot": {}
  }
}